<?xml version="1.0" encoding="UTF-8"?>
<svg width="40px" height="50px" viewBox="0 0 40 50" version="1.1" xmlns="http://www.w3.org/2000/svg" xmlns:xlink="http://www.w3.org/1999/xlink">
    <!-- Generator: Sketch 42 (36781) - http://www.bohemiancoding.com/sketch -->
    <title>Fill 1731</title>
    <desc>Created with Sketch.</desc>
    <defs></defs>
    <g id="Page-1" stroke="none" stroke-width="1" fill="none" fill-rule="evenodd">
        <path d="M36.75,40.46 L31.981,40.46 C31.672,40.46 31.38,40.6 31.191,40.85 C29.13,43.5 26.648,45.63 23.385,47.52 L21.848,47.58 L21.576,47.58 C21.134,47.58 20.658,47.58 20.151,47.48 L22.474,46.44 C22.955,46.22 23.313,45.78 23.434,45.27 C23.556,44.76 23.428,44.21 23.093,43.8 C23,43.69 22.921,43.58 22.853,43.49 C22.851,43.49 22.792,43.42 22.791,43.41 L22.734,43.34 C22.272,42.68 21.711,42.08 21.03,41.5 L21.647,41.22 C22.124,41.01 22.473,40.6 22.604,40.1 C22.736,39.59 22.633,39.06 22.321,38.65 C22.246,38.55 21.974,38.19 21.938,38.15 C21.412,37.55 20.818,37.03 20.194,36.61 C20.581,36.39 20.863,36.02 20.979,35.57 C21.111,35.07 21.007,34.54 20.695,34.12 C19.897,33.05 18.966,32.24 17.939,31.72 C18.229,31.5 18.441,31.19 18.543,30.83 C18.683,30.35 18.603,29.84 18.325,29.41 C16.95,27.35 14.984,26.25 12.64,26.25 C12.039,26.25 11.313,26.37 10.383,26.62 C9.707,26.82 8.927,27.11 7.938,27.51 L6.736,27.56 C6.184,27.58 5.757,28.05 5.782,28.6 C5.806,29.15 6.261,29.59 6.826,29.56 L8.2,29.5 C8.314,29.49 8.428,29.47 8.534,29.42 C9.536,29.01 10.303,28.73 10.944,28.54 C11.654,28.35 12.225,28.25 12.64,28.25 C14.222,28.25 15.475,28.9 16.46,30.24 L14.961,30.91 C14.944,30.92 14.928,30.93 14.912,30.94 L11.063,32.67 C10.257,33.03 9.369,33.19 8.484,33.21 L7.528,33.2 C6.4,33.2 5.398,32.9 4.536,32.32 C4.525,32.31 4.514,32.31 4.502,32.3 C4.261,32.13 4.03,31.94 3.811,31.73 C2.789,30.75 2.292,29.58 2.292,28.16 C2.292,26.63 3.247,25.51 5.205,24.74 C7.229,23.94 10.302,23.54 14.341,23.54 L15.007,23.54 C15.278,23.54 15.538,23.43 15.727,23.24 C15.915,23.04 16.016,22.78 16.006,22.51 L15.993,22.16 C15.993,19.08 14.961,15.8 12.926,12.42 C12.921,12.41 12.916,12.4 12.91,12.39 L12.424,11.56 C11.578,10.16 11.149,8.83 11.149,7.62 C11.149,6.48 11.455,5.51 12.058,4.74 C12.613,4.03 13.441,3.46 14.522,3.05 L15.066,5.57 C15.685,8.44 17.076,11.1 19.089,13.24 L23.825,18.28 C25.228,20.04 26.169,21.24 26.784,22.08 C28.487,24.48 29.744,25.84 30.618,26.24 C31.479,26.65 33.448,26.84 36.636,26.85 C37.454,29.19 37.869,31.59 37.869,34.02 C37.869,36.08 37.493,38.24 36.75,40.46 Z M16.784,46.81 C16.771,46.81 16.756,46.82 16.743,46.83 L16.034,47.15 C15.592,47.35 15.102,47.45 14.616,47.45 L14.157,47.45 C12.95,47.45 12.081,47.26 11.499,46.86 C10.959,46.49 10.686,45.92 10.685,45.21 L10.714,44.66 L12.211,44.66 C13.359,44.66 14.472,44.43 15.52,43.96 L19.016,42.4 L19.208,42.59 C19.241,42.63 19.276,42.66 19.313,42.69 C20.061,43.25 20.644,43.84 21.131,44.54 L21.26,44.7 C21.276,44.72 21.293,44.75 21.31,44.77 L16.784,46.81 Z M9.864,42.64 L9.784,42.64 C8.762,42.58 7.965,42.4 7.407,42.12 C6.79,41.81 6.48,41.38 6.442,40.73 L6.683,39.96 C7.115,40 7.577,40.01 8.071,40.01 L10.821,40.01 C11.958,40.01 13.063,39.78 14.105,39.32 L17.945,37.62 L18.319,37.85 C19.119,38.23 19.83,38.78 20.395,39.42 L20.493,39.55 L18.833,40.29 L18.832,40.29 L14.705,42.13 C13.916,42.48 13.077,42.66 12.211,42.66 L10.673,42.66 C10.39,42.66 10.12,42.66 9.864,42.64 Z M6.091,37.88 C5.517,37.78 5.042,37.64 4.673,37.46 C3.986,37.09 3.652,36.59 3.652,35.92 C3.652,35.57 3.802,35.19 4.123,34.73 L4.28,34.48 C5.257,34.96 6.339,35.2 7.516,35.2 L8.462,35.21 C9.646,35.21 10.816,34.98 11.885,34.49 L15.4,32.91 L16.009,33.11 C17.093,33.4 18.052,34.04 18.865,35.03 L17.632,35.57 C17.618,35.58 17.603,35.58 17.588,35.59 L13.297,37.49 C12.511,37.84 11.678,38.01 10.821,38.01 L8.071,38.01 C7.353,38.01 6.718,37.97 6.17,37.89 C6.144,37.88 6.118,37.88 6.091,37.88 Z M38.448,25.98 L38.279,25.51 C38.136,25.12 37.76,24.85 37.339,24.85 L36.843,24.85 C32.495,24.85 31.558,24.47 31.458,24.43 C31.373,24.39 30.571,23.96 28.4,20.91 C27.765,20.04 26.808,18.81 25.387,17.03 C25.37,17.01 25.316,16.95 25.298,16.93 L20.547,11.87 C18.783,9.99 17.563,7.67 17.021,5.15 L16.239,1.52 C16.179,1.24 16.002,1 15.754,0.86 C15.505,0.72 15.207,0.69 14.938,0.78 L14.185,1.04 C12.578,1.59 11.332,2.42 10.482,3.51 C9.598,4.64 9.149,6.02 9.149,7.62 C9.149,9.2 9.675,10.88 10.704,12.58 L11.199,13.43 C11.208,13.44 11.217,13.46 11.228,13.47 C12.917,16.29 13.84,18.99 13.976,21.54 C9.863,21.57 6.668,22.02 4.473,22.87 C1.018,24.24 0.292,26.5 0.292,28.16 C0.292,30.13 1.01,31.81 2.423,33.17 C2.49,33.24 2.557,33.3 2.625,33.36 L2.463,33.61 C1.925,34.38 1.652,35.15 1.652,35.92 C1.652,37.34 2.393,38.51 3.769,39.24 C4.05,39.38 4.359,39.5 4.698,39.61 L4.484,40.29 C4.454,40.39 4.438,40.57 4.438,40.67 C4.438,42.08 5.172,43.23 6.504,43.9 C7.108,44.21 7.84,44.42 8.718,44.54 L8.686,45.16 C8.686,46.57 9.284,47.76 10.367,48.51 C11.292,49.14 12.532,49.45 14.157,49.45 L14.616,49.45 C15.394,49.45 16.147,49.29 16.855,48.97 L17.26,48.79 L19.57,49.41 C20.364,49.57 21.022,49.58 21.576,49.58 L23.532,49.51 C23.807,49.51 24.079,49.43 24.322,49.29 C27.69,47.34 30.29,45.16 32.466,42.46 L37.464,42.46 C37.89,42.46 38.27,42.19 38.409,41.78 L38.574,41.31 C39.433,38.81 39.869,36.36 39.869,34.02 C39.869,31.3 39.391,28.59 38.448,25.98 L38.448,25.98 Z" id="Fill-1731" fill="#FFFFFF"></path>
    </g>
</svg>